Calculating change from baseline in R
…
trial_data_chg <- trial_data %>%
  arrange(USUBJID, AVISITN) %>%
  group_by(USUBJID) %>%
  mutate(CHG = AVAL - AVAL[1L]) %>%
  ungroup()

First, it’s important to arrange the data of each subject in increasing order of AVISITN. Next, I grouped the data by USUBJID such that AVAL[1L] refers to the baseline value of each subject. Finally, I subtracted the baseline value from the value measured at each visit.

Let’s have a look at the result to see whether this actually did what I said it would do.

trial_data_chg %>%
  select(USUBJID, AVISIT, AVAL, CHG) %>%
  print(n = 14)

# A tibble: 2,100 x 4
   USUBJID          AVISIT    AVAL     CHG
   <chr>            <chr>    <dbl>   <dbl>
 1 ABC123456.000001 Baseline 10.2   0     
 2 ABC123456.000001 Week 4   11.3   1.08  
 3 ABC123456.000001 Week 8   12.3   2.09  
 4 ABC123456.000001 Week 12  13.5   3.31  
 5 ABC123456.000001 Week 16  12.2   2.00  
 6 ABC123456.000001 Week 20  10.2  -0.0213
 7 ABC123456.000001 Week 24  12.3   2.09  
 8 ABC123456.000002 Baseline  9.40  0     
 9 ABC123456.000002 Week 4    9.14 -0.259 
10 ABC123456.000002 Week 8    8.56 -0.838 
11 ABC123456.000002 Week 12   8.59 -0.809 
12 ABC123456.000002 Week 16   8.46 -0.942 
13 ABC123456.000002 Week 20   8.78 -0.624 
14 ABC123456.000002 Week 24   6.97 -2.43  
# ... with 2,086 more rows

Looks good! This method will also work if the value at baseline is NA because subtracting NA from a number results in NA. This is the right result for change from baseline if there’s no baseline available. However, this method will fail if there’s no baseline record at all. In such a case the value of the first visit, e.g. Week 4, would be subtracted from the other visit values. This is wrong, though. Here’s what I mean.

trial_data <- trial_data[-1L, ] # remove baseline of first subject
trial_data %>%
  arrange(USUBJID, AVISITN) %>%
  group_by(USUBJID) %>%
  mutate(CHG = AVAL - AVAL[1L]) %>%
  ungroup() %>%
  select(USUBJID, AVISIT, AVAL, CHG) %>%
  print(n = 14)

# A tibble: 2,099 x 4
   USUBJID          AVISIT    AVAL    CHG
   <chr>            <chr>    <dbl>  <dbl>
 1 ABC123456.000001 Week 4   11.3   0    
 2 ABC123456.000001 Week 8   12.3   1.02 
 3 ABC123456.000001 Week 12  13.5   2.24 
 4 ABC123456.000001 Week 16  12.2   0.923
 5 ABC123456.000001 Week 20  10.2  -1.10 
 6 ABC123456.000001 Week 24  12.3   1.01 
 7 ABC123456.000002 Baseline  9.40  0    
 8 ABC123456.000002 Week 4    9.14 -0.259
 9 ABC123456.000002 Week 8    8.56 -0.838
10 ABC123456.000002 Week 12   8.59 -0.809
11 ABC123456.000002 Week 16   8.46 -0.942
12 ABC123456.000002 Week 20   8.78 -0.624
13 ABC123456.000002 Week 24   6.97 -2.43 
14 ABC123456.000003 Baseline  9.44  0    
# ... with 2,085 more rows
…
trial_data_chg2 <- trial_data %>%
  group_by(USUBJID) %>%
  mutate(
    CHG = if (any(AVISIT == "Baseline")) AVAL - AVAL[AVISIT == "Baseline"] else NA
  ) %>%
  ungroup()

Let’s check that this in fact produced the right result.

trial_data_chg2 %>%
  select(USUBJID, AVISIT, AVAL, CHG) %>%
  print(n = 14)

# A tibble: 2,099 x 4
   USUBJID          AVISIT    AVAL    CHG
   <chr>            <chr>    <dbl>  <dbl>
 1 ABC123456.000001 Week 4   11.3  NA    
 2 ABC123456.000001 Week 8   12.3  NA    
 3 ABC123456.000001 Week 12  13.5  NA    
 4 ABC123456.000001 Week 16  12.2  NA    
 5 ABC123456.000001 Week 20  10.2  NA    
 6 ABC123456.000001 Week 24  12.3  NA    
 7 ABC123456.000002 Baseline  9.40  0    
 8 ABC123456.000002 Week 4    9.14 -0.259
 9 ABC123456.000002 Week 8    8.56 -0.838
10 ABC123456.000002 Week 12   8.59 -0.809
11 ABC123456.000002 Week 16   8.46 -0.942
12 ABC123456.000002 Week 20   8.78 -0.624
13 ABC123456.000002 Week 24   6.97 -2.43 
14 ABC123456.000003 Baseline  9.44  0    
# ... with 2,085 more rows
…
